Machine Learning with caret and recipes
…
Dataset  Pima Indian Diabetes

https://archive.ics.uci.edu/ml/datasets/pima+indians+diabetes

## # A tibble: 768 x 9
##    diabetes n_preg glucose    BP skin_fold insulin        BMI pedigree
##      <fctr>  <int>   <int> <int>     <int>   <int>     <fctr>    <dbl>
##  1        Y      6     148    72        35      NA      obese    0.627
##  2        N      1      85    66        29      NA overweight    0.351
##  3        Y      8     183    64        NA      NA    healthy    0.672
##  4        N      1      89    66        23      94 overweight    0.167
##  5        Y      0     137    40        35     168      obese    2.288
##  6        N      5     116    74        NA      NA overweight    0.201
##  7        Y      3      78    50        32      88      obese    0.248
##  8        N     10     115    NA        NA      NA      obese    0.134
##  9        Y      2     197    70        45     543      obese    0.158
## 10        Y      8     125    96        NA      NA       <NA>    0.232
## # ... with 758 more rows, and 1 more variables: age <int>
…
